<svg width="28" height="29" viewBox="0 0 28 29" fill="none" xmlns="http://www.w3.org/2000/svg">
<path d="M2 2L26 27.071Z" fill="#525923"/>
<path d="M2 2L26 27.071" stroke="#525923" stroke-width="3.23162" stroke-linecap="round"/>
<path d="M2 27.071L26 2Z" fill="#525923"/>
<path d="M2 27.071L26 2" stroke="#525923" stroke-width="3.23162" stroke-linecap="round"/>
</svg>
