<svg width="646" height="475" viewBox="0 0 646 475" fill="none" xmlns="http://www.w3.org/2000/svg">
<path d="M182.233 474.1C125.467 474.1 80.8334 452.65 48.3334 409.75C16.2667 365.983 0.233399 308.567 0.233399 237.5C0.233399 166.433 16.2667 109.233 48.3334 65.9C80.8334 22.5666 125.467 0.89997 182.233 0.89997C239.867 0.89997 284.5 22.5666 316.133 65.9C348.2 109.233 364.233 166.433 364.233 237.5C364.233 308.567 348.2 365.983 316.133 409.75C284.5 452.65 239.867 474.1 182.233 474.1ZM275.183 237.5C275.183 188.967 267.167 151.917 251.133 126.35C235.533 100.783 212.567 88 182.233 88C151.9 88 128.933 100.783 113.333 126.35C97.7334 151.917 89.9334 188.967 89.9334 237.5C89.9334 286.033 97.7334 323.083 113.333 348.65C128.933 373.783 151.9 386.35 182.233 386.35C212.567 386.35 235.533 373.567 251.133 348C267.167 322.433 275.183 285.6 275.183 237.5ZM491.257 292.6C478.191 305.133 462.191 311.4 443.257 311.4C424.057 311.4 407.924 305 394.857 292.2C382.057 279.4 375.657 263.8 375.657 245.4C375.657 227 382.057 211.4 394.857 198.6C408.191 185.8 424.324 179.4 443.257 179.4C462.457 179.4 478.457 185.8 491.257 198.6C504.057 210.867 510.457 226.467 510.457 245.4C510.457 264.067 504.057 279.8 491.257 292.6ZM428.057 436.6L404.057 422.6L586.457 219.8L610.857 233.4L428.057 436.6ZM424.857 263.8C429.657 268.6 435.657 271 442.857 271C450.057 271 456.057 268.6 460.857 263.8C465.657 258.733 468.057 252.6 468.057 245.4C468.057 238.2 465.657 232.2 460.857 227.4C456.057 222.6 450.057 220.2 442.857 220.2C435.657 220.2 429.657 222.6 424.857 227.4C420.324 232.2 418.057 238.2 418.057 245.4C418.057 252.6 420.324 258.733 424.857 263.8ZM645.657 403.8C645.657 422.2 639.257 437.8 626.457 450.6C613.657 463.4 597.657 469.8 578.457 469.8C559.257 469.8 543.257 463.4 530.457 450.6C517.657 437.8 511.257 422.2 511.257 403.8C511.257 385.4 517.657 369.8 530.457 357C543.257 344.2 559.257 337.8 578.457 337.8C597.657 337.8 613.657 344.2 626.457 357C639.257 369.8 645.657 385.4 645.657 403.8ZM596.057 422.2C600.857 417.133 603.257 411 603.257 403.8C603.257 396.6 600.857 390.6 596.057 385.8C591.524 380.733 585.657 378.2 578.457 378.2C571.257 378.2 565.257 380.733 560.457 385.8C555.924 390.6 553.657 396.6 553.657 403.8C553.657 411 555.924 417.133 560.457 422.2C565.257 427 571.257 429.4 578.457 429.4C585.657 429.4 591.524 427 596.057 422.2Z" fill="#FCDFDE"/>
</svg>
